C:\Users\berdinas\IdeaProjects\delta_sprint_3\delta_producto_tecnico_v1\src\test\java\qa\enums\Browser.java
C:\Users\berdinas\IdeaProjects\delta_sprint_3\delta_producto_tecnico_v1\src\test\java\qa\tasks\NavigateTo.java
C:\Users\berdinas\IdeaProjects\delta_sprint_3\delta_producto_tecnico_v1\src\test\java\qa\pageobjects\CrearProductoTecnicoPage.java
C:\Users\berdinas\IdeaProjects\delta_sprint_3\delta_producto_tecnico_v1\src\test\java\qa\tasks\ValidarEliminarProductoTecnico.java
C:\Users\berdinas\IdeaProjects\delta_sprint_3\delta_producto_tecnico_v1\src\test\java\qa\CucumberTests.java
C:\Users\berdinas\IdeaProjects\delta_sprint_3\delta_producto_tecnico_v1\src\test\java\qa\stepdefinitions\ProductoTecnicoStepDefs.java
C:\Users\berdinas\IdeaProjects\delta_sprint_3\delta_producto_tecnico_v1\src\test\java\qa\tasks\EliminarProductoTecnico.java
C:\Users\berdinas\IdeaProjects\delta_sprint_3\delta_producto_tecnico_v1\src\test\java\qa\tasks\MenuProductoTecnico.java
C:\Users\berdinas\IdeaProjects\delta_sprint_3\delta_producto_tecnico_v1\src\test\java\qa\pageobjects\HomeProductoTecnicoPage.java
C:\Users\berdinas\IdeaProjects\delta_sprint_3\delta_producto_tecnico_v1\src\test\java\qa\pageobjects\PageBase.java
C:\Users\berdinas\IdeaProjects\delta_sprint_3\delta_producto_tecnico_v1\src\test\java\qa\pageobjects\EditarProductoTecnicoPage.java
C:\Users\berdinas\IdeaProjects\delta_sprint_3\delta_producto_tecnico_v1\src\test\java\qa\models\ProductoTecnico.java
C:\Users\berdinas\IdeaProjects\delta_sprint_3\delta_producto_tecnico_v1\src\test\java\qa\tasks\ValidarEditarProductoTecnico.java
C:\Users\berdinas\IdeaProjects\delta_sprint_3\delta_producto_tecnico_v1\src\test\java\qa\tasks\EditarProductoTecnico.java
C:\Users\berdinas\IdeaProjects\delta_sprint_3\delta_producto_tecnico_v1\src\test\java\qa\pageobjects\EditarProductoTecnicoServices.java
C:\Users\berdinas\IdeaProjects\delta_sprint_3\delta_producto_tecnico_v1\src\test\java\qa\pageobjects\HomeProductoTecnicoServices.java
C:\Users\berdinas\IdeaProjects\delta_sprint_3\delta_producto_tecnico_v1\src\test\java\qa\util\DriverFactory.java
C:\Users\berdinas\IdeaProjects\delta_sprint_3\delta_producto_tecnico_v1\src\test\java\qa\conf\DriverConfig.java
C:\Users\berdinas\IdeaProjects\delta_sprint_3\delta_producto_tecnico_v1\src\test\java\qa\tasks\CrearProductoTecnico.java
C:\Users\berdinas\IdeaProjects\delta_sprint_3\delta_producto_tecnico_v1\src\test\java\qa\pageobjects\CrearProductoTecnicoServices.java
C:\Users\berdinas\IdeaProjects\delta_sprint_3\delta_producto_tecnico_v1\src\test\java\qa\tasks\ValidarCrearProductoTecnico.java
